// Choreo version 1
actor "spy"
{
  channel "audio"
  {
    event speak "Spy.Incoming03"
    {
      time 0.000000 4.000000
      param "Spy.Incoming03"
      fixedlength
      cctype "cc_master"
      cctoken ""
    }
  }
}

scalesettings
{
  "CChoreoView" "64"
  "ExpressionTool" "100"
  "RampTool" "66"
  "GestureTool" "100"
  "SceneRampTool" "100"
}
fps 60
snap off
