"Resource/UI/build_menu/base_cant_afford.res"
{
	"ItemNameLabel"
	{	
		"ControlName"	"CTFLabel"
		"fieldName"		"ItemNameLabel"
		"font"			"Default"
		"xpos"			"6"
		"ypos"			"0"
		"zpos"			"1"
		"wide"			"84"
		"tall"			"15"
		"autoResize"	"0"
		"pinCorner"		"0"
		"visible"		"1"
		"enabled"		"1"
		"labelText"		"#TF_Object_Sentry"
		"textAlignment"	"Left"
		"dulltext"		"0"
		"brighttext"	"0"
	}
	
	"ItemBackground"	
	{
		"ControlName"	"CIconPanel"
		"fieldName"		"ItemBackground"
		"xpos"			"4"
		"ypos"			"14"
		"zpos"			"0"
		"wide"			"98"
		"tall"			"105"
		"visible"		"1"
		"enabled"		"1"
		"scaleImage"	"1"	
		"icon"			"hud_menu_item_bg_outline"
		"iconColor"		"ProgressOffWhiteTransparent"
	}
	
	"CantBuildReason"
	{	
		"ControlName"	"CTFLabel"
		"fieldName"		"CantBuildReason"
		"font"			"Default"
		"fgcolor"		"RedSolid"
		"xpos"			"10"
		"ypos"			"25"
		"zpos"			"2"
		"wide"			"80"
		"tall"			"18"
		"autoResize"	"0"
		"pinCorner"		"0"
		"visible"		"1"
		"enabled"		"1"
		"labelText"		"#Hud_Menu_Build_Cant_Afford"
		"textAlignment"	"Left"
	}
	
	"MetalIcon"	
	{
		"ControlName"	"CIconPanel"
		"fieldName"		"MetalIcon"
		"xpos"			"10"
		"ypos"			"18"
		"zpos"			"1"
		"wide"			"10"
		"tall"			"10"
		"visible"		"1"
		"enabled"		"1"
		"scaleImage"	"1"	
		"icon"			"ico_metal"
		"iconColor"		"RedSolid"
	}
	
	"CostLabel"
	{	
		"ControlName"	"CTFLabel"
		"fieldName"		"CostLabel"
		"font"			"HudFontSmall"
		"fgcolor"		"RedSolid"
		"xpos"			"23"
		"ypos"			"17"
		"zpos"			"1"
		"wide"			"84"
		"tall"			"13"
		"autoResize"	"0"
		"pinCorner"		"0"
		"visible"		"1"
		"enabled"		"1"
		"labelText"		"%metal%"
		"textAlignment"	"Left"
	}
	
	"NumberBg"	
	{
		"ControlName"	"CIconPanel"
		"fieldName"		"NumberBg"
		"xpos"			"41"
		"ypos"			"99"
		"zpos"			"0"
		"wide"			"18"
		"tall"			"18"
		"visible"		"1"
		"enabled"		"1"
		"scaleImage"	"1"	
		"icon"			"ico_key_blank"
		"iconColor"		"255 255 255 255"
	}
	
	"NumberLabel"
	{	
		"ControlName"	"CTFLabel"
		"fieldName"		"NumberLabel"
		"font"			"HudMenuNumberFont"
		"fgcolor"		"Black"
		"xpos"			"0"
		"ypos"			"98"
		"zpos"			"1"
		"wide"			"100"
		"tall"			"18"
		"autoResize"	"0"
		"pinCorner"		"0"
		"visible"		"1"
		"enabled"		"1"
		"labelText"		"1"
		"textAlignment"	"Center"
		"dulltext"		"1"
		"brighttext"	"0"
	}
}