#base "base_already_built.res"

"Resource/UI/build_menu/tele_entrance_already_built.res"
{
	"ItemNameLabel"
	{	
		"labelText"		"#TF_Object_tele_entrance"
	}
	
	"NumberLabel"
	{	
		"labelText"		"3"
	}
}