#base "base_active.res"

"Resource/UI/build_menu/tele_exit_active.res"
{
	"ItemNameLabel"
	{	
		"labelText"		"#TF_Object_Tele_Exit"
	}
	
	"BuildingIcon"	
	{
		"icon"			"hud_menu_tele_exit_build"
	}
	
	"NumberLabel"
	{	
		"labelText"		"4"
	}
}