#base "base_active.res"

"Resource/UI/build_menu/tele_entrance_active.res"
{
	"ItemNameLabel"
	{	
		"labelText"		"#TF_Object_Tele_Entrance"
	}
	
	"BuildingIcon"	
	{
		"icon"			"hud_menu_tele_entrance_build"
	}
	
	"NumberLabel"
	{	
		"labelText"		"3"
	}
}