"Resource/UI/build_menu/HudMenuEngyDestroy.res"
{
	"MainBackground"	
	{
		"ControlName"	"CIconPanel"
		"fieldName"		"MainBackground"
		"xpos"			"0"
		"ypos"			"14"
		"zpos"			"0"
		"wide"			"450"
		"tall"			"170"
		"visible"		"1"
		"enabled"		"1"
		"scaleImage"	"1"	
		"icon"			"hud_menu_bg"
		"iconColor"		"255 255 255 255"
	}
	
	"DestroyIcon"	
	{
		"ControlName"	"CIconPanel"
		"fieldName"		"DestroyIcon"
		"xpos"			"0"
		"ypos"			"0"
		"zpos"			"0"
		"wide"			"64"
		"tall"			"64"
		"visible"		"1"
		"enabled"		"1"
		"scaleImage"	"1"	
		"icon"			"ico_demolish"
		"iconColor"		"255 255 255 255"
	}
	
	"TitleLabelDropshadow"
	{	
		"ControlName"	"CTFLabel"
		"fieldName"		"TitleLabelDropshadow"
		"font"			"HudFontGiantBold"
		"fgcolor"		"Black"
		"xpos"			"32"			// align me to the left edge of the first selection
		"ypos"			"9"
		"zpos"			"1"
		"wide"			"240"
		"tall"			"35"
		"autoResize"	"0"
		"pinCorner"		"0"
		"visible"		"1"
		"enabled"		"1"
		"labelText"		"#Hud_menu_demolish_title"
		"textAlignment"	"Left"
		"dulltext"		"1"
		"brighttext"	"0"
	}
	
	"TitleLabel"
	{	
		"ControlName"	"CTFLabel"
		"fieldName"		"TitleLabel"
		"font"			"HudFontGiantBold"
		"xpos"			"31"			// align me to the left edge of the first selection
		"ypos"			"6"
		"zpos"			"2"
		"wide"			"240"
		"tall"			"38"
		"autoResize"	"0"
		"pinCorner"		"0"
		"visible"		"1"
		"enabled"		"1"
		"labelText"		"#Hud_menu_demolish_title"
		"textAlignment"	"Left"
		"dulltext"		"0"
		"brighttext"	"0"
	}
	
	"CancelLabel"
	{	
		"ControlName"	"CTFLabel"
		"fieldName"		"CancelLabel"
		"font"			"SpectatorKeyHints"
		"xpos"			"218"
		"ypos"			"34"
		"zpos"			"1"
		"wide"			"200"
		"tall"			"13"
		"autoResize"	"0"
		"pinCorner"		"0"
		"visible"		"1"
		"enabled"		"1"
		"labelText"		"#Hud_Menu_Build_Cancel"
		"textAlignment"	"East"
		"dulltext"		"0"
		"brighttext"	"0"
	}
	
	"active_item_1"
	{
		"ControlName"	"CEngyDestroyMenuItem"
		"fieldName"		"active_item_1"
		"xpos"			"25"
		"ypos"			"51"
		"zpos"			"1"
		"wide"			"100"
		"tall"			"124"
		"visible"		"0"
	}	
	
	"active_item_2"
	{
		"ControlName"	"CEngyDestroyMenuItem"
		"fieldName"		"active_item_2"
		"xpos"			"125"
		"ypos"			"51"
		"zpos"			"1"
		"wide"			"100"
		"tall"			"124"
		"visible"		"0"
	}	
	
	"active_item_3"
	{
		"ControlName"	"CEngyDestroyMenuItem"
		"fieldName"		"active_item_3"
		"xpos"			"225"
		"ypos"			"51"
		"zpos"			"1"
		"wide"			"100"
		"tall"			"124"
		"visible"		"0"
	}	
	
	"active_item_4"
	{
		"ControlName"	"CEngyDestroyMenuItem"
		"fieldName"		"active_item_4"
		"xpos"			"325"
		"ypos"			"51"
		"zpos"			"1"
		"wide"			"100"
		"tall"			"124"
		"visible"		"0"
	}
	
	"inactive_item_1"
	{
		"ControlName"	"CEngyDestroyMenuItem"
		"fieldName"		"active_item_1"
		"xpos"			"25"
		"ypos"			"51"
		"zpos"			"1"
		"wide"			"100"
		"tall"			"124"
		"visible"		"1"
	}	
	
	"inactive_item_2"
	{
		"ControlName"	"CEngyDestroyMenuItem"
		"fieldName"		"inactive_item_2"
		"xpos"			"125"
		"ypos"			"51"
		"zpos"			"1"
		"wide"			"100"
		"tall"			"124"
		"visible"		"1"
	}	
	
	"inactive_item_3"
	{
		"ControlName"	"CEngyDestroyMenuItem"
		"fieldName"		"inactive_item_3"
		"xpos"			"225"
		"ypos"			"51"
		"zpos"			"1"
		"wide"			"100"
		"tall"			"124"
		"visible"		"1"
	}	
	
	"inactive_item_4"
	{
		"ControlName"	"CEngyDestroyMenuItem"
		"fieldName"		"inactive_item_4"
		"xpos"			"325"
		"ypos"			"51"
		"zpos"			"1"
		"wide"			"100"
		"tall"			"124"
		"visible"		"1"
	}	
}