"Resource/UI/destroy_menu/tele_entrance_active.res"
{
	"ItemNameLabel"
	{	
		"ControlName"	"CTFLabel"
		"fieldName"		"ItemNameLabel"
		"font"			"Default"
		"xpos"			"6"
		"ypos"			"0"
		"zpos"			"1"
		"wide"			"84"
		"tall"			"15"
		"autoResize"	"0"
		"pinCorner"		"0"
		"visible"		"1"
		"enabled"		"1"
		"labelText"		"#TF_Object_Tele_Entrance"
		"textAlignment"	"Left"
		"dulltext"		"0"
		"brighttext"	"0"
	}
	
	"ItemBackground"	
	{
		"ControlName"	"CIconPanel"
		"fieldName"		"ItemBackground"
		"xpos"			"4"
		"ypos"			"14"
		"zpos"			"0"
		"wide"			"98"
		"tall"			"105"
		"visible"		"1"
		"enabled"		"1"
		"scaleImage"	"1"	
		"icon"			"hud_menu_item_bg_outline"
		"iconColor"		"ProgressOffWhite"
	}
	
	"DestroyIcon"	
	{
		"ControlName"	"CIconPanel"
		"fieldName"		"DestroyIcon"
		"xpos"			"13"
		"ypos"			"18"
		"zpos"			"1"
		"wide"			"70"
		"tall"			"70"
		"visible"		"1"
		"enabled"		"1"
		"scaleImage"	"1"	
		"icon"			"ico_demolish"
		"iconColor"		"255 255 255 255"
	}
		
	"BuildingIcon"	
	{
		"ControlName"	"CIconPanel"
		"fieldName"		"BuildingIcon"
		"xpos"			"20"
		"ypos"			"30"
		"zpos"			"2"
		"wide"			"60"
		"tall"			"60"
		"visible"		"1"
		"enabled"		"1"
		"scaleImage"	"1"	
		"icon"			"obj_status_tele_entrance"
		"iconColor"		"255 255 255 128"
	}
		
	"NumberBg"	
	{
		"ControlName"	"CIconPanel"
		"fieldName"		"NumberBg"
		"xpos"			"41"
		"ypos"			"99"
		"zpos"			"0"
		"wide"			"18"
		"tall"			"18"
		"visible"		"1"
		"enabled"		"1"
		"scaleImage"	"1"	
		"icon"			"ico_key_blank"
		"iconColor"		"255 255 255 255"
	}
	
	"NumberLabel"
	{	
		"ControlName"	"CTFLabel"
		"fieldName"		"NumberLabel"
		"font"			"HudMenuNumberFont"
		"fgcolor"		"Black"
		"xpos"			"0"
		"ypos"			"98"
		"zpos"			"1"
		"wide"			"100"
		"tall"			"18"
		"autoResize"	"0"
		"pinCorner"		"0"
		"visible"		"1"
		"enabled"		"1"
		"labelText"		"3"
		"textAlignment"	"Center"
		"dulltext"		"1"
		"brighttext"	"0"
	}
}