"GameMenu" [$WIN32]
{
	"1"
	{
		"label" "#GameUI_GameMenu_ResumeGame"
		"command" "ResumeGame"
		"OnlyInGame" "1"
	}
	"2"
	{
		"label" "#GameUI_GameMenu_Disconnect"
		"command" "Disconnect"
		"OnlyInGame" "1"
	}
	"3"
	{
		"label" "#GameUI_GameMenu_PlayerList"
		"command" "OpenPlayerListDialog"
		"OnlyInGame" "1"
	}
	"4"
	{
		"label" "#GameUI_GameMenu_FindServers"
		"command" "OpenServerBrowser"
	}
	"5"
	{
		"label" "#GameUI_GameMenu_CreateServer"
		"command" "OpenCreateMultiplayerGameDialog"
	}
	"7"
	{
		"label"	"#GameUI_LoadCommentary"
		"command" "OpenLoadCommentaryDialog"
	}
	"8"
	{
		"label" "#GameUI_ReportBug"
		"command" "engine bug"
	}
	"9"
	{
		"label" "#GameUI_GameMenu_Options"
		"command" "OpenOptionsDialog"
	}
	"10"
	{
		"label" "#GameUI_GameMenu_PlayerStats"
		"command" "engine showstatsdlg"
	}
	"11"
	{
		"label" "#GameUI_GameMenu_Quit"
		"command" "Quit"
	}
}
