"Resource/UI/ControlPointProgressBar.res"
{
	"ControlPointProgressBar"
	{
		"ControlName"	"EditablePanel"
		"fieldName"	"ControlPointProgressBar"
		"xpos"		"0"
		"ypos"		"0"
		"zpos"		"20"
		"wide"		"54"
		"tall"		"65"
		"visible"	"0"
		"enabled"	"1"
	}

	"ProgressBar"
	{
		"ControlName"	"CircularProgressBar"
		"fieldName"	"ProgressBar"
		"xpos"		"5"
		"ypos"		"5"
		"zpos"		"23"
		"wide"		"45"
		"tall"		"45"
		"autoResize"	"0"
		"pinCorner"	"0"
		"visible"	"1"
		"enabled"	"1"
		"fg_image"	"progress_bar_blu"
		"bg_image"	"progress_bar_blu"
	}

	"Teardrop"
	{
		"ControlName"	"CIconPanel"
		"fieldName"	"Teardrop"
		"xpos"		"0"
		"ypos"		"0"
		"zpos"		"21"
		"wide"		"54"
		"tall"		"65"
		"visible"	"1"
		"enabled"	"1"
		"scaleImage"	"1"
		"icon"		"cappoint_progressbar_teardrop"
		"iconColor"	"255 255 255 255"
	}
	
	"TeardropSide"
	{
		"ControlName"	"CIconPanel"
		"fieldName"	"TeardropSide"
		"xpos"		"0"
		"ypos"		"0"
		"zpos"		"21"
		"wide"		"54"
		"tall"		"54"
		"visible"	"1"
		"enabled"	"1"
		"scaleImage"	"1"
		"icon"		"cappoint_progressbar_teardrop"
		"iconColor"	"255 255 255 255"
	}

	"ProgressText"
	{	
		"ControlName"		"Label"
		"fieldName"		"ProgressText"
		"font"			"DefaultSmall"
		"xpos"			"0"
		"ypos"			"20"
		"zpos"			"23"
		"wide"			"60"
		"tall"			"40"
		"autoResize"		"0"
		"pinCorner"		"0"
		"visible"		"1"
		"enabled"		"1"
		"labelText"		"progress"
		"textAlignment"		"north"
		"dulltext"		"0"
		"brighttext"		"0"
	}

	"Blocked"
	{
		"ControlName"	"CIconPanel"
		"fieldName"	"Blocked"
		"xpos"		"2"
		"ypos"		"2"
		"zpos"		"21"
		"wide"		"50"
		"tall"		"50"
		"visible"	"1"
		"enabled"	"1"
		"scaleImage"	"1"
		"icon"		"cappoint_progressbar_blocked"
		"iconColor"	"255 255 255 255"
	}
}
