"Resource/UI/FreezePanelCallout.res"
{
	"CalloutBG"
	{
		"ControlName"		"CTFImagePanel"
		"fieldName"		"CalloutBG"
		"xpos"			"10"
		"ypos"			"10"
		"zpos"			"0"
		"wide"			"80"
		"tall"			"30"
		"visible"		"1"
		"enabled"		"1"
		"image"			"../hud/freezecam_blue_bg"
		"scaleImage"		"1"	
		"teambg_2"		"../hud/freezecam_blue_bg"	// Reversed, due to showing killer's name
		"teambg_3"		"../hud/freezecam_red_bg"	// Reversed, due to showing killer's name	
	}
	"ArrowIcon"
	{
		"ControlName"		"ImagePanel"
		"fieldName"		"ArrowIcon"
		"xpos"			"20"
		"ypos"			"35"
		"zpos"			"3"
		"wide"			"20"
		"tall"			"10"
		"visible"		"1"
		"enabled"		"1"
		"image"			"../hud/freezecam_callout_arrow"
		"scaleImage"	"1"	
	}		
	"CalloutLabel"
	{	
		"ControlName"		"CTFLabel"
		"fieldName"		"CalloutLabel"
		"font"			"TFFontMedium"
		"xpos"			"20"
		"ypos"			"15"
		"zpos"			"2"
		"wide"			"60"
		"tall"			"20"
		"autoResize"		"0"
		"pinCorner"		"0"
		"visible"		"1"
		"enabled"		"1"
		"labelText"		"#FreezePanel_Callout"
		"textAlignment"		"center"
		"dulltext"		"0"
		"brighttext"		"0"
	}
}
