"Resource/UI/hud_obj_sentrygun.res"
{
	"BuildingStatusItem"
	{
		"ControlName"	"Frame"
		"fieldName"		"BuildingStatusItem"
		"xpos"			"0"
		"ypos"			"0"
		"wide"			"160"
		"tall"			"60"
		"autoResize"	"0"
		"pinCorner"		"0"
		"visible"		"1"
		"enabled"		"1"
		"tabPosition"	"0"
	}
	
	"Background"
	{
		"ControlName"	"CIconPanel"
		"fieldName"		"Background"
		"xpos"			"0"
		"ypos"			"0"
		"zpos"			"-1"
		"wide"			"120"
		"tall"			"60"
		"visible"		"1"
		"enabled"		"1"
		"scaleImage"	"1"	
		"icon"			"obj_status_background_tall_disabled"
		"iconColor"		"255 255 255 255"
	}
	
	"Icon_Sentry_1"
	{
		"ControlName"	"CIconPanel"
		"fieldName"		"Icon_Sentry_1"
		"xpos"			"22"
		"ypos"			"12"
		"wide"			"36"
		"tall"			"36"
		"visible"		"1"
		"enabled"		"1"
		"scaleImage"	"1"	
		"icon"			"obj_status_sentrygun_1"
		"iconColor"		"255 255 255 255"
	}
	
	"Icon_Sentry_2"
	{
		"ControlName"	"CIconPanel"
		"fieldName"		"Icon_Sentry_2"
		"xpos"			"22"
		"ypos"			"12"
		"wide"			"36"
		"tall"			"36"
		"visible"		"0"
		"enabled"		"1"
		"scaleImage"	"1"	
		"icon"			"obj_status_sentrygun_2"
		"iconColor"		"255 255 255 255"
	}
	
	"Icon_Sentry_3"
	{
		"ControlName"	"CIconPanel"
		"fieldName"		"Icon_Sentry_3"
		"xpos"			"22"
		"ypos"			"12"
		"wide"			"36"
		"tall"			"36"
		"visible"		"0"
		"enabled"		"1"
		"scaleImage"	"1"	
		"icon"			"obj_status_sentrygun_3"
		"iconColor"		"255 255 255 255"
	}
	
	"NotBuiltPanel"
	{
		"ControlName"	"EditablePanel"
		"fieldName"		"NotBuiltPanel"
		"xpos"			"0"
		"ypos"			"0"
		"wide"			"160"
		"tall"			"60"
		"visible"		"1"

		"NotBuiltLabel"
		{
			"ControlName"	"CTFLabel"
			"fieldName"		"NotBuiltLabel"
			"font"			"DefaultVerySmall"
			"xpos"			"60"
			"ypos"			"0"
			"wide"			"200"
			"tall"			"60"
			"autoResize"	"0"
			"pinCorner"		"0"
			"visible"		"1"
			"enabled"		"1"
			"labelText"		"#Building_hud_sentry_not_built"
			"textAlignment"	"Left"
			"dulltext"		"0"
			"brighttext"	"0"
		}
	}
	
	"BuiltPanel"
	{
		"ControlName"	"EditablePanel"
		"fieldName"		"BuiltPanel"
		"xpos"			"0"
		"ypos"			"0"
		"wide"			"160"
		"tall"			"60"
		"visible"		"0"
		
		
		"AlertTray"
		{
			"ControlName"	"CBuildingStatusAlertTray"
			"fieldName"		"AlertTray"
			"xpos"			"114"
			"ypos"			"0"
			"ypos"			"0"
			"zpos"			"-2"
			"wide"			"44"
			"tall"			"60"
			"visible"		"1"
			"enabled"		"1"	
			"icon"			"obj_status_alert_background_tall"
		}
		
		"WrenchIcon"
		{
			"ControlName"	"CIconPanel"
			"fieldName"		"WrenchIcon"
			"xpos"			"121"
			"ypos"			"18"
			"zpos"			"1"
			"wide"			"27"
			"tall"			"25"
			"visible"		"0"
			"enabled"		"1"
			"scaleImage"	"1"	
			"icon"			"obj_status_icon_wrench"
			"iconColor"		"255 255 255 255"
		}
		
		"SapperIcon"
		{
			"ControlName"	"CIconPanel"
			"fieldName"		"SapperIcon"
			"xpos"			"117"
			"ypos"			"12"
			"zpos"			"1"
			"wide"			"35"
			"tall"			"35"
			"visible"		"0"
			"enabled"		"1"
			"scaleImage"	"1"	
			"icon"			"obj_status_icon_sapper"
			"iconColor"		"255 255 255 255"
		}
		
		"Health"
		{	
			"ControlName"	"CBuildingHealthBar"
			"fieldName"		"Health"
			"font"			"Default"
			"xpos"			"13"
			"ypos"			"2"
			"wide"			"8"
			"tall"			"53"
			"autoResize"	"0"
			"pinCorner"		"0"
			"visible"		"1"
			"enabled"		"1"
			"textAlignment"	"Left"
			"dulltext"		"0"
			"brighttext"	"0"	
		}
		
		"BuildingPanel"
		{
			"ControlName"	"EditablePanel"
			"fieldName"		"BuildingPanel"
			"xpos"			"60"
			"ypos"			"0"
			"wide"			"100"
			"tall"			"60"
			"visible"		"0"

			"BuildingLabel"
			{
				"ControlName"	"CTFLabel"
				"fieldName"		"BuildingLabel"
				"font"			"DefaultSmall"
				"xpos"			"0"
				"ypos"			"18"
				"wide"			"200"
				"tall"			"12"
				"autoResize"	"0"
				"pinCorner"		"0"
				"visible"		"1"
				"enabled"		"1"
				"labelText"		"#Building_hud_building"
				"textAlignment"	"Left"
				"dulltext"		"0"
				"brighttext"	"0"
			}
			
			"BuildingProgress"
			{	
				"ControlName"	"ContinuousProgressBar"
				"fieldName"		"BuildingProgress"
				"font"			"Default"
				"xpos"			"0"
				"ypos"			"29"
				"wide"			"50"
				"tall"			"8"				
				"autoResize"	"0"
				"pinCorner"		"0"
				"visible"		"1"
				"enabled"		"1"
				"textAlignment"	"Left"
				"dulltext"		"0"
				"brighttext"	"0"
			}
		}
		
		"RunningPanel"
		{
			"ControlName"	"EditablePanel"
			"fieldName"		"RunningPanel"
			"xpos"			"60"
			"ypos"			"0"
			"wide"			"100"
			"tall"			"60"
			"visible"		"0"
						
			"KillsLabel"
			{	
				"ControlName"	"CTFLabel"
				"fieldName"		"KillsLabel"
				"font"			"DefaultSmall"
				"xpos"			"0"
				"ypos"			"35"
				"wide"			"200"
				"tall"			"22"
				"autoResize"	"0"
				"pinCorner"		"0"
				"visible"		"1"
				"enabled"		"1"
				"labelText"		"#Building_hud_sentry_numkills"
				"textAlignment"	"Left"
				"dulltext"		"0"
				"brighttext"	"0"
			}
					
			"ShellsLabel"
			{	
				"ControlName"	"CTFLabel"
				"fieldName"		"ShellsLabel"
				"font"			"DefaultSmall"
				"xpos"			"0"
				"ypos"			"2"
				"wide"			"200"
				"tall"			"12"
				"autoResize"	"0"
				"pinCorner"		"0"
				"visible"		"1"
				"enabled"		"1"
				"labelText"		"#Building_hud_sentry_shells"
				"textAlignment"	"Left"
				"dulltext"		"0"
				"brighttext"	"0"
			}
			
			"Shells"
			{	
				"ControlName"	"ContinuousProgressBar"
				"fieldName"		"Shells"
				"font"			"Default"
				"xpos"			"0"
				"ypos"			"12"
				"wide"			"50"
				"tall"			"8"				
				"autoResize"	"0"
				"pinCorner"		"0"
				"visible"		"1"
				"enabled"		"1"
				"textAlignment"	"Left"
				"dulltext"		"0"
				"brighttext"	"0"
			}
			
			"RocketsLabel"
			{	
				"ControlName"	"CTFLabel"
				"fieldName"		"RocketsLabel"
				"font"			"DefaultSmall"
				"xpos"			"0"
				"ypos"			"19"
				"wide"			"200"
				"tall"			"12"
				"autoResize"	"0"
				"pinCorner"		"0"
				"visible"		"0"
				"enabled"		"1"
				"labelText"		"#Building_hud_sentry_rockets"
				"textAlignment"	"Left"
				"dulltext"		"0"
				"brighttext"	"0"
			}
			
			"Rockets"
			{	
				"ControlName"	"ContinuousProgressBar"
				"fieldName"		"Rockets"
				"font"			"Default"
				"xpos"			"0"
				"ypos"			"29"
				"wide"			"50"
				"tall"			"8"
				"autoResize"	"0"
				"pinCorner"		"0"
				"visible"		"0"
				"enabled"		"1"
				"textAlignment"	"Left"
				"dulltext"		"0"
				"brighttext"	"0"
			}
			
			"UpgradeLabel"
			{	
				"ControlName"	"CTFLabel"
				"fieldName"		"UpgradeLabel"
				"font"			"DefaultSmall"
				"xpos"			"0"
				"ypos"			"19"
				"wide"			"200"
				"tall"			"12"
				"autoResize"	"0"
				"pinCorner"		"0"
				"visible"		"1"
				"enabled"		"1"
				"labelText"		"#Building_hud_sentry_upgrade"
				"textAlignment"	"Left"
				"dulltext"		"0"
				"brighttext"	"0"
			}
			
			"Upgrade"
			{	
				"ControlName"	"ContinuousProgressBar"
				"fieldName"		"Upgrade"
				"font"			"Default"
				"xpos"			"0"
				"ypos"			"29"
				"wide"			"50"
				"tall"			"8"
				"autoResize"	"0"
				"pinCorner"		"0"
				"visible"		"1"
				"enabled"		"1"
				"textAlignment"	"Left"
				"dulltext"		"0"
				"brighttext"	"0"
			}
		}
	}
}