"Resource/UI/HudAmmoWeapons.res"
{
	"HudWeaponAmmoBG"
	{
		"ControlName"	"CTFImagePanel"
		"fieldName"		"HudWeaponAmmoBG"
		"xpos"			"0"
		"ypos"			"0"
		"zpos"			"1"
		"wide"			"90"
		"tall"			"45"
		"visible"		"1"
		"enabled"		"1"
		"image"			"../hud/ammo_blue_bg"
		"scaleImage"	"1"	
		"teambg_2"		"../hud/ammo_red_bg"
		"teambg_3"		"../hud/ammo_blue_bg"				
	}
	"AmmoInClip"
	{
		"ControlName"	"CTFLabel"
		"fieldName"		"AmmoInClip"
		"font"			"HudFontGiantBold"
		"fgcolor"		"TanLight"
		"xpos"			"0"
		"ypos"			"0"
		"zpos"			"5"
		"wide"			"55"
		"tall"			"40"
		"visible"		"0"
		"enabled"		"1"
		"textAlignment"	"south-east"	
		"labelText"		"%Ammo%"
		
	}		
	"AmmoInClipShadow"
	{
		"ControlName"	"CTFLabel"
		"fieldName"		"AmmoInClipShadow"
		"font"			"HudFontGiantBold"
		"fgcolor"		"Black"
		"xpos"			"1"
		"ypos"			"1"
		"zpos"			"5"
		"wide"			"55"
		"tall"			"40"
		"visible"		"0"
		"enabled"		"1"
		"textAlignment"	"south-east"	
		"labelText"		"%Ammo%"
		
	}						
	"AmmoInReserve"
	{
		"ControlName"	"CTFLabel"
		"fieldName"		"AmmoInReserve"
		"font"			"HudFontMediumSmall"
		"fgcolor"		"TanLight"
		"xpos"			"55"
		"ypos"			"8"
		"zpos"			"7"
		"wide"			"40"
		"tall"			"27"
		"visible"		"0"
		"enabled"		"1"
		"textAlignment"	"south-west"		
		"labelText"		"%AmmoInReserve%"
	}		
	"AmmoInReserveShadow"
	{
		"ControlName"	"CTFLabel"
		"fieldName"		"AmmoInReserveShadow"
		"font"			"HudFontMediumSmall"
		"fgcolor"		"TransparentBlack"
		"xpos"			"56"
		"ypos"			"9"
		"zpos"			"7"
		"wide"			"40"
		"tall"			"27"
		"visible"		"0"
		"enabled"		"1"
		"textAlignment"	"south-west"		
		"labelText"		"%AmmoInReserve%"
	}									
	"AmmoNoClip"
	{
		"ControlName"	"CTFLabel"
		"fieldName"		"AmmoNoClip"
		"font"			"HudFontGiantBold"
		"fgcolor"		"TanLight"
		"xpos"			"0"
		"ypos"			"2"
		"zpos"			"5"
		"wide"			"79"
		"tall"			"40"
		"visible"		"0"
		"enabled"		"1"
		"textAlignment"	"south-east"		
		"labelText"		"%Ammo%"
		
	}	
	"AmmoNoClipShadow"
	{
		"ControlName"	"CTFLabel"
		"fieldName"		"AmmoNoClipShadow"
		"font"			"HudFontGiantBold"
		"fgcolor"		"Black"
		"xpos"			"1"
		"ypos"			"3"
		"zpos"			"5"
		"wide"			"79"
		"tall"			"40"
		"visible"		"0"
		"enabled"		"1"
		"textAlignment"	"south-east"		
		"labelText"		"%Ammo%"
		
	}									
}
