"Resource/UI/HudMedicCharge.res"
{	
	"Background"
	{
		"ControlName"	"CTFImagePanel"
		"fieldName"		"Background"
		"xpos"			"0"
		"ypos"			"0"
		"zpos"			"0"
		"wide"			"130"
		"tall"			"65"
		"visible"		"1"
		"enabled"		"1"
		"image"			"../hud/medic_charge_blue_bg"
		"scaleImage"	"1"	
		"teambg_2"		"../hud/medic_charge_red_bg"
		"teambg_3"		"../hud/medic_charge_blue_bg"				
	}
	
	"ChargeLabel"
	{
		"ControlName"	"CTFLabel"
		"fieldName"		"ChargeLabel"
		"xpos"			"30"
		"ypos"			"24"
		"zpos"			"2"
		"wide"			"90"
		"tall"			"15"
		"autoResize"	"1"
		"pinCorner"		"2"
		"visible"		"1"
		"enabled"		"1"
		"tabPosition"	"0"
		"labelText"		"UBERCHARGE"
		"textAlignment"	"west"
		"dulltext"		"0"
		"brighttext"	"0"
		"font"			"HudFontSmall"
	}
	
	"ChargeMeter"
	{	
		"ControlName"	"ContinuousProgressBar"
		"fieldName"		"ChargeMeter"
		"font"			"Default"
		"xpos"			"30"
		"ypos"			"38"
		"zpos"			"2"
		"wide"			"86"
		"tall"			"8"				
		"autoResize"	"0"
		"pinCorner"		"0"
		"visible"		"1"
		"enabled"		"1"
		"textAlignment"	"Left"
		"dulltext"		"0"
		"brighttext"	"0"
	}		
	
	"HealthClusterIcon"
	{
		"ControlName"	"ImagePanel"
		"fieldName"		"HealthClusterIcon"
		"xpos"			"2"
		"ypos"			"17"
		"wide"			"36"
		"tall"			"36"
		"visible"		"1"
		"enabled"		"1"
		"image"			"../hud/ico_health_cluster"
		"scaleImage"	"1"	
	}		
}
