"Resource/UI/HudPlayerClass.res"
{
	// player class data
	"HudPlayerClass"
	{
		"ControlName"	"EditablePanel"
		"fieldName"		"HudPlayerClass"
		"xpos"			"0"
		"ypos"			"0"
		"zpos"			"1"
		"wide"			"f0"
		"tall"			"480"
		"visible"		"1"
		"enabled"		"1"		
	}
	"PlayerStatusClassImage"
	{
		"ControlName"	"CTFImagePanel"
		"fieldName"		"PlayerStatusClassImage"
		"xpos"			"25"	[$WIN32]
		"ypos"			"r88"	[$WIN32]
		"xpos"			"57"	[$X360]
		"ypos"			"r110"	[$X360]
		"zpos"			"2"
		"wide"			"75"
		"tall"			"75"
		"visible"		"1"
		"enabled"		"1"
		"image"			"../hud/class_scoutred"
		"scaleImage"	"1"	
	}
	"PlayerStatusSpyImage"
	{
		"ControlName"	"CTFImagePanel"
		"fieldName"		"PlayerStatusSpyImage"
		"xpos"			"3"		[$WIN32]
		"ypos"			"r67"	[$WIN32]
		"xpos"			"35"	[$X360]
		"ypos"			"r89"	[$X360]
		"zpos"			"2"
		"wide"			"55"
		"tall"			"55"
		"visible"		"1"
		"enabled"		"1"
		"image"			"../hud/class_spyred"
		"scaleImage"	"1"	
		"teambg_2"		"../hud/class_spyred"
		"teambg_3"		"../hud/class_spyblue"			
	}	
	"PlayerStatusSpyOutlineImage"
	{
		"ControlName"	"CTFImagePanel"
		"fieldName"		"PlayerStatusSpyOutlineImage"
		"xpos"			"3"		[$WIN32]
		"ypos"			"r67"	[$WIN32]
		"xpos"			"35"	[$X360]
		"ypos"			"r89"	[$X360]
		"zpos"			"7"
		"wide"			"55"
		"tall"			"55"
		"visible"		"0"
		"enabled"		"1"
		"image"			"../hud/class_spy_outline"
		"scaleImage"	"1"	
	}		
	"PlayerStatusClassImageBG"
	{
		"ControlName"	"CTFImagePanel"
		"fieldName"		"PlayerStatusClassImageBG"
		"xpos"			"9"		[$WIN32]
		"ypos"			"r60"	[$WIN32]
		"xpos"			"41"	[$X360]
		"ypos"			"r82"	[$X360]
		"zpos"			"1"		
		"wide"			"100"
		"tall"			"50"
		"visible"		"1"
		"enabled"		"1"
		"image"			"../hud/character_red_bg"
		"scaleImage"	"1"	
		"teambg_2"		"../hud/character_red_bg"
		"teambg_3"		"../hud/character_blue_bg"		
	}
}
