"Resource/UI/MedicCallerPanel.res"
{
	"CallerBG"
	{
		"ControlName"		"CTFImagePanel"
		"fieldName"		"CallerBG"
		"xpos"			"8"
		"ypos"			"0"
		"zpos"			"0"
		"wide"			"30"
		"tall"			"30"
		"visible"		"1"
		"enabled"		"1"
		"image"			"../effects/speech_mediccall_hud"
		"scaleImage"		"1"	
	}		
}
