"Resource/UI/SpectatorGUIHealth.res"
{
	"PlayerStatusHealthImage"
	{
		"ControlName"	"ImagePanel"
		"fieldName"		"PlayerStatusHealthImage"
		"xpos"			"5"
		"ypos"			"5"
		"zpos"			"4"
		"wide"			"21"
		"tall"			"21"
		"visible"		"1"
		"enabled"		"1"
		"scaleImage"	"1"	
	}		
	"PlayerStatusHealthImageBG"
	{
		"ControlName"	"ImagePanel"
		"fieldName"		"PlayerStatusHealthImageBG"
		"xpos"			"5"
		"ypos"			"5"
		"zpos"			"3"
		"wide"			"21"
		"tall"			"21"
		"visible"		"1"
		"enabled"		"1"
		"image"			"../hud/health_bg"
		"scaleImage"	"1"	
	}	
	"PlayerStatusHealthBonusImage"
	{
		"ControlName"	"ImagePanel"
		"fieldName"		"PlayerStatusHealthBonusImage"
		"xpos"			"5"
		"ypos"			"5"
		"zpos"			"3"
		"wide"			"21"
		"tall"			"21"
		"visible"		"0"
		"enabled"		"1"
		"image"			"../hud/health_over_bg"
		"scaleImage"	"1"	
	}
	"PlayerStatusHealthValue"
	{
		"ControlName"	"Label"
		"fieldName"		"PlayerStatusHealthValue"
		"xpos"			"75"
		"ypos"			"32"
		"zpos"			"5"
		"wide"			"50"
		"tall"			"18"
		"visible"		"0"
		"enabled"		"0"
		"textAlignment"	"center"	
	}								
}
