"Resource/UI/TextWindow.res"
{
	"info"
	{
		"ControlName"			"CTFTextWindow"
		"fieldName"				"info"
		"xpos"					"0"
		"ypos"					"0"
		"wide"					"f0"
		"tall"					"480"
		"autoResize"			"0"
		"pinCorner"				"0"
		"visible"				"1"
		"enabled"				"1"
		"tabPosition"			"0"
		"settitlebarvisible"	"0"
	}
	
	"TFMessageTitle"
	{
		"ControlName"	"CTFLabel"
		"fieldName"		"TFMessageTitle"
		"xpos"			"c-184"
		"ypos"			"95"
		"zpos"			"1"
		"wide"			"420"
		"tall"			"24"
		"autoResize"	"0"
		"pinCorner"		"0"
		"visible"		"1"
		"enabled"		"1"
		"labelText"		"#TF_WELCOME"
		"textAlignment"	"west"
		"dulltext"		"0"
		"brighttext"	"0"
		"font"			"ChalkboardTitle"
		"fgcolor"		"White"
	}	

	"TextMessage"
	{
		"ControlName"		"TextEntry"
		"fieldName"		"TextMessage"
		"xpos"			"c-184"
		"ypos"			"125"
		"zpos"			"1"
		"wide"			"420"
		"tall"			"250"
		"autoResize"	"1"
		"pinCorner"		"0"
		"visible"		"1"
		"enabled"		"1"
		"textAlignment"		"northwest"
		"textHidden"		"0"
		"editable"		"0"
		"maxchars"		"-1"
		"NumericInputOnly"	"0"
		"paintborder"	"0"
	}

	"HTMLMessage"
	{
		"ControlName"		"HTML"
		"fieldName"		"HTMLMessage"
		"xpos"			"c-184"
		"ypos"			"125"
		"zpos"			"1"
		"wide"			"420"
		"tall"			"250"
		"autoResize"	"1"
		"pinCorner"		"0"
		"visible"		"1"
		"enabled"		"1"
		"tabPosition"		"0"
		"paintborder"	"0"
	}
	
	"ok"
	{
		"ControlName"		"CTFButton"
		"fieldName"		"ok"
		"xpos"			"r190"
		"ypos"			"r40"
		"zpos"			"6"
		"wide"			"150"
		"tall"			"30"
		"autoResize"	"0"
		"pinCorner"		"2"
		"visible"		"1"
		"enabled"		"1"
		"tabPosition"		"0"
		"labelText"		"#TF_Continue"
		"textAlignment"		"center"
		"dulltext"		"0"
		"brighttext"		"0"
		"wrap"		"0"
		"command"		"okay"
		"default"		"1"
		"font"			"MenuSmallFont"
	}
	
	"MenuBG"
	{
		"ControlName"	"CModelPanel"
		"fieldName"		"MenuBG"
		"xpos"			"0"
		"ypos"			"0"
		"zpos"			"0"		
		"wide"			"f0"
		"tall"			"480"
		"autoResize"	"0"
		"pinCorner"		"0"
		"visible"		"1"
		"enabled"		"1"
		"fov"			"20"
		
		"model"
		{
			"modelname"	"models/vgui/UI_welcome01_screen.mdl"
			"skin"		"0"
			"angles_x" "0"
			"angles_y" "180"
			"angles_z" "0"
			"origin_x" "290"
			"origin_y" "0"
			"origin_z" "-39"
		}
	}
	
	"ShadedBar"
	{
		"ControlName"	"ImagePanel"
		"fieldName"		"ShadedBar"
		"xpos"			"0"
		"ypos"			"r50"
		"zpos"			"5"
		"wide"			"f0"
		"tall"			"50"
		"autoResize"	"0"
		"pinCorner"		"0"
		"visible"		"1"
		"enabled"		"1"
		"tabPosition"	"0"	
		"fillcolor"		"0 0 0 180"
		"PaintBackgroundType"	"0"
	}						
	
	"MessageTitle"
	{
		"ControlName"	"Label"
		"fieldName"		"MessageTitle"
		"visible"		"0"
		"enabled"		"0"
	}		
}
