"Resource/UI/winpanel.res"
{
	"TeamScoresPanel"
	{
		"ControlName"		"EditablePanel"
		"fieldName"		"TeamScoresPanel"
		"xpos"			"-44"
		"ypos"			"13"
		"wide"			"480"
		"tall"			"60"
		"visible"		"1"

		"BlueScoreBG"
		{
			"ControlName"		"ImagePanel"
			"fieldName"		"BlueScoreBG"
			"xpos"			"0"
			"ypos"			"10"
			"wide"			"240"
			"tall"			"50"
			"autoResize"	"0"
			"pinCorner"		"0"
			"visible"		"1"
			"enabled"		"1"
			"image"			"../hud/winpanel_blue_bg_team"
			"scaleImage"		"1"
		}
		"RedScoreBG"
		{
			"ControlName"		"ImagePanel"
			"fieldName"		"RedScoreBG"
			"xpos"			"140"
			"ypos"			"10"
			"wide"			"240"
			"tall"			"50"
			"autoResize"	"0"
			"pinCorner"		"0"
			"visible"		"1"
			"enabled"		"1"
			"image"			"../hud/winpanel_red_bg_team"
			"scaleImage"		"1"
		}
		"BlueTeamLabel"
		{
			"ControlName"		"CTFLabel"
			"fieldName"		"BlueTeamLabel"
			"font"			"ScoreboardTeamName"
			"labelText"		"#TF_ScoreBoard_Blue"
			"textAlignment"		"west"
			"xpos"			"56"
			"ypos"			"25"
			"wide"			"50"
			"tall"			"20"
			"autoResize"	"0"
			"pinCorner"		"0"
			"visible"		"1"
			"enabled"		"1"
		}							
		"BlueTeamScore"
		{
			"ControlName"		"CTFLabel"
			"fieldName"		"BlueTeamScore"
			"font"			"ScoreboardTeamScore"
			"labelText"		"%blueteamscore%"
			"textAlignment"		"east"
			"xpos"			"105"
			"ypos"			"0"
			"zpos"			"3"
			"wide"			"80"
			"tall"			"50"
			"autoResize"	"0"
			"pinCorner"		"0"
			"visible"		"1"
			"enabled"		"1"
		}
		"BlueTeamScoreDropshadow"
		{
			"ControlName"		"CTFLabel"
			"fieldName"		"BlueTeamScoreDropshadow"
			"font"			"ScoreboardTeamScore"
			"fgcolor"		"Black"
			"labelText"		"%blueteamscore%"
			"textAlignment"		"east"
			"xpos"			"106"
			"ypos"			"1"
			"zpos"			"3"
			"wide"			"80"
			"tall"			"50"
			"autoResize"	"0"
			"pinCorner"		"0"
			"visible"		"1"
			"enabled"		"1"
		}							
		"RedTeamLabel"
		{
			"ControlName"		"CTFLabel"
			"fieldName"		"RedTeamLabel"
			"font"			"ScoreboardTeamName"
			"labelText"		"#TF_ScoreBoard_Red"
			"textAlignment"		"east"
			"xpos"			"274"
			"ypos"			"25"
			"wide"			"50"
			"tall"			"20"
			"autoResize"	"0"
			"pinCorner"		"0"
			"visible"		"1"
			"enabled"		"1"
		}							
		"RedTeamScore"
		{
			"ControlName"		"CTFLabel"
			"fieldName"		"RedTeamScore"
			"font"			"ScoreboardTeamScore"
			"labelText"		"%redteamscore%"
			"textAlignment"		"west"
			"xpos"			"197"
			"ypos"			"0"
			"zpos"			"3"
			"wide"			"80"
			"tall"			"50"
			"autoResize"	"0"
			"pinCorner"		"0"
			"visible"		"1"
			"enabled"		"1"
		}
		"RedTeamScoreDropshadow"
		{
			"ControlName"		"CTFLabel"
			"fieldName"		"RedTeamScoreDropshadow"
			"font"			"ScoreboardTeamScore"
			"fgcolor"		"Black"
			"labelText"		"%redteamscore%"
			"textAlignment"		"west"
			"xpos"			"198"
			"ypos"			"1"
			"zpos"			"3"
			"wide"			"80"
			"tall"			"50"
			"autoResize"	"0"
			"pinCorner"		"0"
			"visible"		"1"
			"enabled"		"1"
		}							

	}
	"WinPanelBG"
	{
		"ControlName"		"ImagePanel"
		"fieldName"		"WinPanelBG"
		"xpos"			"-102"
		"ypos"			"50"
		"zpos"			"0"
		"wide"			"496"
		"tall"			"164"
		"visible"		"1"
		"enabled"		"1"
		"scaleImage"		"1"	
	}
	"WinningTeamLabel"
	{	
		"ControlName"		"CTFLabel"
		"fieldName"		"WinningTeamLabel"
		"font"			"ScoreboardTeamName"
		"xpos"			"0"
		"ypos"			"72"
		"zpos"			"1"
		"wide"			"292"
		"tall"			"24"
		"autoResize"		"0"
		"pinCorner"		"0"
		"visible"		"1"
		"enabled"		"1"
		"labelText"		"%WinningTeamLabel%"
		"textAlignment"		"Center"
		"dulltext"		"0"
		"brighttext"		"0"
	}
	"WinningTeamLabelDropshadow"
	{	
		"ControlName"		"CTFLabel"
		"fieldName"		"WinningTeamLabelDropshadow"
		"font"			"ScoreboardTeamName"
		"fgcolor"		"black"
		"xpos"			"1"
		"ypos"			"73"
		"zpos"			"1"
		"wide"			"292"
		"tall"			"24"
		"autoResize"		"0"
		"pinCorner"		"0"
		"visible"		"1"
		"enabled"		"1"
		"labelText"		"%WinningTeamLabel%"
		"textAlignment"		"Center"
		"dulltext"		"0"
		"brighttext"		"0"
	}
	"AdvancingTeamLabel"
	{	
		"ControlName"		"CTFLabel"
		"fieldName"		"AdvancingTeamLabel"
		"font"			"ScoreboardMedium"
		"xpos"			"0"
		"ypos"			"72"
		"zpos"			"1"
		"wide"			"292"
		"tall"			"20"
		"autoResize"		"0"
		"pinCorner"		"0"
		"visible"		"1"
		"enabled"		"1"
		"labelText"		"%AdvancingTeamLabel%"
		"textAlignment"		"Center"
		"dulltext"		"0"
		"brighttext"		"0"
	}
	"AdvancingTeamLabelDropshadow"
	{	
		"ControlName"		"CTFLabel"
		"fieldName"		"AdvancingTeamLabelDropshadow"
		"font"			"ScoreboardMedium"
		"fgcolor"		"black"
		"xpos"			"1"
		"ypos"			"73"
		"zpos"			"1"
		"wide"			"292"
		"tall"			"20"
		"autoResize"		"0"
		"pinCorner"		"0"
		"visible"		"1"
		"enabled"		"1"
		"labelText"		"%AdvancingTeamLabel%"
		"textAlignment"		"Center"
		"dulltext"		"0"
		"brighttext"		"0"
	}
	"WinReasonLabel"
	{	
		"ControlName"		"CTFLabel"
		"fieldName"		"WinReasonLabel"
		"font"			"ScoreboardSmall"
		"xpos"			"0"
		"ypos"			"89"
		"zpos"			"1"
		"wide"			"292"
		"tall"			"20"
		"autoResize"		"0"
		"pinCorner"		"0"
		"visible"		"1"
		"enabled"		"1"
		"labelText"		"%WinReasonLabel%"
		"textAlignment"		"Center"
		"dulltext"		"0"
		"brighttext"		"0"
	}
	"DetailsLabel"
	{	
		"ControlName"		"CTFLabel"
		"fieldName"		"DetailsLabel"
		"font"			"ScoreboardVerySmall"
		"xpos"			"12"
		"ypos"			"101"
		"zpos"			"1"
		"wide"			"268"
		"tall"			"20"
		"autoResize"		"0"
		"pinCorner"		"0"
		"visible"		"1"
		"enabled"		"1"
		"labelText"		"%DetailsLabel%"
		"textAlignment"		"Center"
		"dulltext"		"0"
		"brighttext"		"0"
	}
	"ShadedBar"
	{
		"ControlName"		"ImagePanel"
		"fieldName"		"ShadedBar"
		"xpos"			"12"
		"ypos"			"116"
		"zpos"			"2"
		"wide"			"268"
		"tall"			"72"
		"autoResize"	"0"
		"pinCorner"		"0"
		"visible"		"1"
		"enabled"		"1"
		"tabPosition"	"0"	
		"fillcolor"		"0 0 0 150"
		"PaintBackgroundType"	"0"
	}
	"TopPlayersLabel"
	{	
		"ControlName"		"CTFLabel"
		"fieldName"		"TopPlayerLabel"
		"font"			"ScoreboardVerySmall"
		"xpos"			"15"
		"ypos"			"114"
		"zpos"			"3"
		"wide"			"200"
		"tall"			"20"
		"autoResize"		"0"
		"pinCorner"		"0"
		"visible"		"1"
		"enabled"		"1"
		"labelText"		"%TopPlayersLabel%"
		"textAlignment"		"west"
		"dulltext"		"0"
		"brighttext"		"0"
	}
	"PointsThisRoundLabel"
	{	
		"ControlName"		"CTFLabel"
		"fieldName"		"PointsThisRoundLabel"
		"font"			"ScoreboardVerySmall"
		"xpos"			"174"
		"ypos"			"114"
		"zpos"			"3"
		"wide"			"100"
		"tall"			"20"
		"autoResize"		"0"
		"pinCorner"		"0"
		"visible"		"1"
		"enabled"		"1"
		"labelText"		"#Winpanel_PointsThisRound"
		"textAlignment"		"east"
		"dulltext"		"0"
		"brighttext"		"0"
	}
	"HorizontalLine"
	{
		"ControlName"		"ImagePanel"
		"fieldName"		"HorizontalLine"
		"xpos"			"15"
		"ypos"			"129"
		"zpos"			"3"
		"wide"			"260"
		"tall"			"1"
		"autoResize"	"0"
		"pinCorner"		"0"
		"visible"		"1"
		"enabled"		"1"
		"tabPosition"	"0"	
		"fillcolor"		"250 234 201 255"
		"PaintBackgroundType"	"0"
	}
	"Player1Avatar"
	{
		"ControlName"		"CAvatarImagePanel"
		"fieldName"		"Player1Avatar"
		"xpos"			"14"
		"ypos"			"132"
		"zpos"			"3"
		"wide"			"18"
		"tall"			"18"
		"visible"		"1"
		"enabled"		"1"
		"image"			""
		"scaleImage"		"1"	
		"color_outline"		"52 48 45 255"
	}
	"Player1Name"
	{	
		"ControlName"		"CTFLabel"
		"fieldName"		"Player1Name"
		"xpos"			"36"
		"ypos"			"132"
		"zpos"			"3"
		"wide"			"128"
		"tall"			"20"
		"autoResize"		"0"
		"pinCorner"		"0"
		"visible"		"1"
		"enabled"		"1"
		"labelText"		""
		"textAlignment"		"west"
		"dulltext"		"0"
		"brighttext"		"0"
	}
	"Player1Class"
	{	
		"ControlName"		"CTFLabel"
		"fieldName"		"Player1Class"
		"xpos"			"180"
		"ypos"			"132"
		"zpos"			"3"
		"wide"			"200"
		"tall"			"20"
		"autoResize"		"0"
		"pinCorner"		"0"
		"visible"		"1"
		"enabled"		"1"
		"labelText"		""
		"textAlignment"		"west"
		"dulltext"		"0"
		"brighttext"		"0"
	}
	"Player1Score"
	{	
		"ControlName"		"CTFLabel"
		"fieldName"		"Player1Score"
		"xpos"			"220"
		"ypos"			"132"
		"zpos"			"3"
		"wide"			"30"
		"tall"			"20"
		"autoResize"		"0"
		"pinCorner"		"0"
		"visible"		"1"
		"enabled"		"1"
		"labelText"		""
		"textAlignment"		"east"
		"dulltext"		"0"
		"brighttext"		"0"
	}
	"Player2Avatar"
	{
		"ControlName"		"CAvatarImagePanel"
		"fieldName"		"Player2Avatar"
		"xpos"			"14"
		"ypos"			"150"
		"zpos"			"3"
		"wide"			"18"
		"tall"			"18"
		"visible"		"1"
		"enabled"		"1"
		"image"			""
		"scaleImage"		"1"	
		"color_outline"		"52 48 45 255"
	}
	"Player2Name"
	{	
		"ControlName"		"CTFLabel"
		"fieldName"		"Player2Name"
		"xpos"			"36"
		"ypos"			"150"
		"zpos"			"3"
		"wide"			"128"
		"tall"			"20"
		"autoResize"		"0"
		"pinCorner"		"0"
		"visible"		"1"
		"enabled"		"1"
		"labelText"		""
		"textAlignment"		"west"
		"dulltext"		"0"
		"brighttext"		"0"
	}
	"Player2Class"
	{	
		"ControlName"		"CTFLabel"
		"fieldName"		"Player2Class"
		"xpos"			"180"
		"ypos"			"150"
		"zpos"			"3"
		"wide"			"200"
		"tall"			"20"
		"autoResize"		"0"
		"pinCorner"		"0"
		"visible"		"1"
		"enabled"		"1"
		"labelText"		""
		"textAlignment"		"west"
		"dulltext"		"0"
		"brighttext"		"0"
	}
	"Player2Score"
	{	
		"ControlName"		"CTFLabel"
		"fieldName"		"Player2Score"
		"xpos"			"220"
		"ypos"			"150"
		"zpos"			"3"
		"wide"			"30"
		"tall"			"20"
		"autoResize"		"0"
		"pinCorner"		"0"
		"visible"		"1"
		"enabled"		"1"
		"labelText"		""
		"textAlignment"		"east"
		"dulltext"		"0"
		"brighttext"		"0"
	}
	"Player3Avatar"
	{
		"ControlName"		"CAvatarImagePanel"
		"fieldName"		"Player3Avatar"
		"xpos"			"14"
		"ypos"			"168"
		"zpos"			"3"
		"wide"			"18"
		"tall"			"18"
		"visible"		"1"
		"enabled"		"1"
		"image"			""
		"scaleImage"		"1"	
		"color_outline"		"52 48 45 255"
	}
	"Player3Name"
	{	
		"ControlName"		"CTFLabel"
		"fieldName"		"Player3Name"
		"xpos"			"36"
		"ypos"			"168"
		"zpos"			"3"
		"wide"			"128"
		"tall"			"20"
		"autoResize"		"0"
		"pinCorner"		"0"
		"visible"		"1"
		"enabled"		"1"
		"labelText"		""
		"textAlignment"		"west"
		"dulltext"		"0"
		"brighttext"		"0"
	}
	"Player3Class"
	{	
		"ControlName"		"CTFLabel"
		"fieldName"		"Player3Class"
		"xpos"			"180"
		"ypos"			"168"
		"zpos"			"3"
		"wide"			"200"
		"tall"			"20"
		"autoResize"		"0"
		"pinCorner"		"0"
		"visible"		"1"
		"enabled"		"1"
		"labelText"		""
		"textAlignment"		"west"
		"dulltext"		"0"
		"brighttext"		"0"
	}
	"Player3Score"
	{	
		"ControlName"		"CTFLabel"
		"fieldName"		"Player3Score"
		"xpos"			"220"
		"ypos"			"168"
		"zpos"			"3"
		"wide"			"30"
		"tall"			"20"
		"autoResize"		"0"
		"pinCorner"		"0"
		"visible"		"1"
		"enabled"		"1"
		"labelText"		""
		"textAlignment"		"east"
		"dulltext"		"0"
		"brighttext"		"0"
	}
}
